…
The means per variable, cell type, and sample are stored in the pseudobulk `SingleCellExperiment` object:


```r
metadata(pb)$aggr_means
```

```
## # A tibble: 128 × 5
## # Groups:   cell [8]
##    cell    id       cluster   value1   value2
##    <fct>   <fct>      <dbl>    <dbl>    <dbl>
##  1 B cells ctrl101     3.96  0.205    0.0599 
##  2 B cells ctrl1015    4.00 -0.0310   0.0521 
##  3 B cells ctrl1016    4     0.146    0.00301
##  4 B cells ctrl1039    4.04 -0.266   -0.134  
##  5 B cells ctrl107     4    -0.0142  -0.179  
##  6 B cells ctrl1244    4    -0.0586   0.203  
##  7 B cells ctrl1256    4.01  0.00828  0.125  
##  8 B cells ctrl1488    4.02  0.107    0.0833 
##  9 B cells stim101     4.09  0.0105  -0.0870 
## 10 B cells stim1015    4.06  0.111    0.00333
## # … with 118 more rows
```
…
