Modeling continuous cell-level covariates • dreamlet
…
sce$id <- paste0(sce$StimStatus, sce$ind)

# Create pseudobulk 
pb <- aggregateToPseudoBulk(sce,
    assay = "counts",     
    cluster_id = "cell",  
    sample_id = "id",
    verbose = FALSE)

The means per variable, cell type, and sample are stored in the
pseudobulk SingleCellExperiment object:

metadata(pb)$aggr_means

## # A tibble: 128 × 5
## # Groups:   cell [8]
##    cell    id       cluster   value1   value2
##    <fct>   <fct>      <dbl>    <dbl>    <dbl>
##  1 B cells ctrl101     3.96  0.128    0.00275
##  2 B cells ctrl1015    4.00  0.0419   0.0159 
##  3 B cells ctrl1016    4     0.0738  -0.0168 
##  4 B cells ctrl1039    4.04 -0.192   -0.224  
##  5 B cells ctrl107     4    -0.275    0.164  
##  6 B cells ctrl1244    4     0.00224  0.00950
##  7 B cells ctrl1256    4.01  0.121    0.0688 
##  8 B cells ctrl1488    4.02 -0.0837   0.0203 
##  9 B cells stim101     4.09  0.0253   0.0502 
## 10 B cells stim1015    4.06 -0.0167   0.0210 
## # ℹ 118 more rows
…
