Modeling continuous cell-level covariates • dreamlet
…
sce$id <- paste0(sce$StimStatus, sce$ind)

# Create pseudobulk 
pb <- aggregateToPseudoBulk(sce,
    assay = "counts",     
    cluster_id = "cell",  
    sample_id = "id",
    verbose = FALSE)

The means per variable, cell type, and sample are stored in the
pseudobulk SingleCellExperiment object:

metadata(pb)$aggr_means

## # A tibble: 128 × 6
## # Groups:   cell [8]
##    cell    id         ind cluster   value1   value2
##    <fct>   <fct>    <dbl>   <dbl>    <dbl>    <dbl>
##  1 B cells ctrl101    101    3.96 -0.0262   0.0381 
##  2 B cells ctrl1015  1015    4.00 -0.0287  -0.0568 
##  3 B cells ctrl1016  1016    4    -0.00749  0.107  
##  4 B cells ctrl1039  1039    4.04 -0.0632  -0.0602 
##  5 B cells ctrl107    107    4     0.0431   0.0427 
##  6 B cells ctrl1244  1244    4    -0.0890   0.0552 
##  7 B cells ctrl1256  1256    4.01 -0.0648  -0.00655
##  8 B cells ctrl1488  1488    4.02 -0.0439   0.00504
##  9 B cells stim101    101    4.09 -0.0670   0.0421 
## 10 B cells stim1015  1015    4.06  0.120   -0.0476 
## # … with 118 more rows
…
